{
  "name": "visma/package-basic-patch",
  "version": "3.1.30",
  "type": "metapackage",
  "extra": {
    "patches": {
      "visma/package-basic": {
        "0.2.1": [
          {
            "url": "./location.patch",
            "title": "Example patch"
          }
        ],
        "0": {
          "url": "./location.patch",
          "title": "Match-all patch"
        }
      }
    }
  }
}